Practical 3: Basics of Spatial Statistics
…
## v ggplot2 3.3.3     v purrr   0.3.4
## v tibble  3.1.1     v dplyr   1.0.5
## v tidyr   1.1.3     v stringr 1.4.0
## v readr   1.4.0     v forcats 0.5.1

## -- Conflicts ------------------------------------------ tidyverse_conflicts() --
## x dplyr::filter() masks stats::filter()
## x dplyr::lag()    masks stats::lag()

density_lag <- lag.listw(lw, baltimore@data$pop_dens)
table <- tibble(neighborhood = baltimore@data$name, density = density_lag)
table

## # A tibble: 278 x 2
##    neighborhood                density
##    <chr>                         <dbl>
##  1 Abell                        16347.
##  2 Allendale                    15575.
##  3 Arcadia                       8047.
##  4 Arlington                     9828.
##  5 Armistead Gardens             3413.
##  6 Ashburton                    11292.
##  7 Baltimore Highlands          15234.
##  8 Patterson Park Neighborhood  21624.
##  9 Barclay                      14093.
## 10 Barre Circle                 11449.
## # ... with 268 more rows
…
